{
	"notifications": {
		"administrator":[
			{
				"id": "new_order_added",
				"name": "New order added",
				"value": true
			},{
				"id": "new_invoice_generated",
				"name": "New invoice generated",
				"value": true
			},{
				"id": "payment_received",
				"name": "Payment received",
				"value": true
			},{
				"id": "payment_done",
				"name": "Payment done",
				"value": true
			},{
				"id": "inventory_updated",
				"name": "Inventory updated",
				"value": true
			},{
				"id": "low_inventory",
				"name": "Low Inventory",
				"value": true
			},{
				"id": "client_payment_due",
				"name": "Client payment due",
				"value": true
			},{
				"id": "salesman_checking",
				"name": "Salesman checking",
				"value": true
			},{
				"id": "goods_dispatched",
				"name": "Goods dispatched",
				"value": true
			},{
				"id": "deliveryman_checking",
				"name": "Deliveryman checking",
				"value": true
			},{
				"id": "reports",
				"name": "Reports",
				"value": true
			}
		],
		"salesman":[
			{
				"id": "new_order_added",
				"name": "New order added",
				"value": true
			},{
				"id": "new_invoice_generated",
				"name": "New invoice generated",
				"value": false
			},{
				"id": "payment_received",
				"name": "Payment received",
				"value": false
			},{
				"id": "payment_done",
				"name": "Payment done",
				"value": false
			},{
				"id": "inventory_updated",
				"name": "Inventory updated",
				"value": false
			},{
				"id": "low_inventory",
				"name": "Low Inventory",
				"value": false
			},{
				"id": "client_payment_due",
				"name": "Client payment due",
				"value": false
			},{
				"id": "salesman_checking",
				"name": "Salesman checking",
				"value": false
			},{
				"id": "goods_dispatched",
				"name": "Goods dispatched",
				"value": false
			},{
				"id": "deliveryman_checking",
				"name": "Deliveryman checking",
				"value": false
			},{
				"id": "reports",
				"name": "Reports",
				"value": false
			}
		],
		"accountant":[
			{
				"id": "new_order_added",
				"name": "New order added",
				"value": true
			},{
				"id": "new_invoice_generated",
				"name": "New invoice generated",
				"value": false
			},{
				"id": "payment_received",
				"name": "Payment received",
				"value": false
			},{
				"id": "payment_done",
				"name": "Payment done",
				"value": false
			},{
				"id": "inventory_updated",
				"name": "Inventory updated",
				"value": false
			},{
				"id": "low_inventory",
				"name": "Low Inventory",
				"value": false
			},{
				"id": "client_payment_due",
				"name": "Client payment due",
				"value": false
			},{
				"id": "salesman_checking",
				"name": "Salesman checking",
				"value": false
			},{
				"id": "goods_dispatched",
				"name": "Goods dispatched",
				"value": false
			},{
				"id": "deliveryman_checking",
				"name": "Deliveryman checking",
				"value": false
			},{
				"id": "reports",
				"name": "Reports",
				"value": false
			}
		],
		"deliveryman":[
			{
				"id": "new_order_added",
				"name": "New order added",
				"value": true
			},{
				"id": "new_invoice_generated",
				"name": "New invoice generated",
				"value": false
			},{
				"id": "payment_received",
				"name": "Payment received",
				"value": false
			},{
				"id": "payment_done",
				"name": "Payment done",
				"value": false
			},{
				"id": "inventory_updated",
				"name": "Inventory updated",
				"value": false
			},{
				"id": "low_inventory",
				"name": "Low Inventory",
				"value": false
			},{
				"id": "client_payment_due",
				"name": "Client payment due",
				"value": false
			},{
				"id": "salesman_checking",
				"name": "Salesman checking",
				"value": false
			},{
				"id": "goods_dispatched",
				"name": "Goods dispatched",
				"value": false
			},{
				"id": "deliveryman_checking",
				"name": "Deliveryman checking",
				"value": false
			},{
				"id": "reports",
				"name": "Reports",
				"value": false
			}
		],
		"worker":[
			{
				"id": "new_order_added",
				"name": "New order added",
				"value": true
			},{
				"id": "new_invoice_generated",
				"name": "New invoice generated",
				"value": false
			},{
				"id": "payment_received",
				"name": "Payment received",
				"value": false
			},{
				"id": "payment_done",
				"name": "Payment done",
				"value": false
			},{
				"id": "inventory_updated",
				"name": "Inventory updated",
				"value": false
			},{
				"id": "low_inventory",
				"name": "Low Inventory",
				"value": false
			},{
				"id": "client_payment_due",
				"name": "Client payment due",
				"value": false
			},{
				"id": "salesman_checking",
				"name": "Salesman checking",
				"value": false
			},{
				"id": "goods_dispatched",
				"name": "Goods dispatched",
				"value": false
			},{
				"id": "deliveryman_checking",
				"name": "Deliveryman checking",
				"value": false
			},{
				"id": "reports",
				"name": "Reports",
				"value": false
			}
		]
	}
}