{"data" : {"type" : "a4","invoice" : {"type" : {"name" : "Invoice Type"},"data" : {"invoice_no" : "INV00001","invoice_date" : "DD-MM-YYYY","company" : {"details" : {"name" : "Company Name"},"address" : {"street" : ", ","city" : "City","state" : "State","country" : "Country","pincode" : "123456","show" : true}},"client" : {"details" : {"show" : true,"name" : "Account Name","TIN" : "123456789","GST" : "987654321"},"address" : {"street" : "Address","city" : "City","state" : "State","country" : "Country","pincode" : "123456"}},"products" : {"bank" : {"name" : "Product Name","account_no" : "","branch_name" : "","neft_code" : ""},"summary" : {"rates" : [{"id" : "netamount","name" : "Net Amount","value" : "100"},{"id" : "totalitemtax","name" : "Item Tax Amount","value" : "10"},{"id" : "categorytaxamount","name" : "Category Tax Amount","value" : "10"},{"id" : "invoicetaxamount","name" : "Invoice Tax Amount","value" : "10"},{"id" : "grossamount","name" : "Gross Amount","value" : "130"}],"text" : "One Hundred and Thirty Only"}},"summary" : {"text" : "Lorem Ipsum","signatures" : [{"id" : "prepared_by","text" : "Prepared by,","name" : "Name"},{"id" : "received_by","text" : "Received by,","name" : "Name"},{"id" : "authorized_by","text" : "Authorized by,","name" : "Name"}]},"columns" : [{"show": true,"name": "#","column": "serial_number","pos": 1,},{"show" : true,"name" : "Product Name","column" : "itemname","width" : "15%","pos" : NumberLong(2)},{"show" : true,"name" : "Total Pieces","column" : "totalpieces","pos" : NumberLong(6)},{"show" : true,"name" : "Taxes (%)","column" : "taxes","pos" : NumberLong(10)},{"show" : true,"name" : "Gross Rate","column" : "grossrate","pos" : NumberLong(11)},{"show" : true,"name" : "Gross Amount","column" : "grossamount","pos" : NumberLong(15)}]},"styles" : {"type" : {"style" : {"fontSize" : "14px","textAlign" : "center","color" : "#555555"}},"data" : {"style" : {"margin" : "10px","border" : "solid 1px #555555"},"company" : {"style" : {"textAlign" : "center","float" : "none"},"details" : {"show" : true,"style" : {"fontSize" : "8px","fontWeight" : "bold","color" : "#555555","fontStyle" : "normal"}},"address" : {"show" : true,"style" : {"fontSize" : "8px","padding" : "0","color" : "#999999"}}},"client" : {"show" : true,"style" : {"textAlign" : "right"},"details" : {"show" : true,"style" : {"fontSize" : "8px","fontWeight" : "bold"}},"address" : {"show" : true,"style" : {"fontSize" : "8px","padding" : "0","fontWeight" : "normal"}},"tin" : {"show" : true}},"products" : {"bank" : {"show" : false,"style" : {"fontSize" : "14px"}},"summary" : {"text" : {"show" : true,"style" : {"fontSize" : "10px","textAlign" : "center","fontWeight" : "bold"}}}},"summary" : {"text" : {"show" : true,"style" : {"fontSize" : "12px","textAlign" : "left"}},"signatures" : {"show" : true,"style" : [ ]}}}}},"name" : "A4","image" : "https://placeholdit.imgix.net/~text?txtsize=0&bg=ffffff&txtclr=ffffff&txt=595%C3%97842&w=2480&h=3508","size" : "8.27\" x 11.69\"","ratio" : 1.414}}

{"data" : {"type" : "a5","invoice" : {"type" : {"name" : "Invoice Type"},"data" : {"invoice_no" : "INV00001","invoice_date" : "DD-MM-YYYY","company" : {"details" : {"name" : "Company Name"},"address" : {"street" : "Address goes here","city" : "City","state" : "State","country" : "Country","pincode" : "123456","show" : true}},"client" : {"details" : {"show" : true,"name" : "Account Name","TIN" : "123456789","GST" : "987654321"},"address" : {"street" : "Address goes here","city" : "City","state" : "State","country" : "Country","pincode" : "123456"}},"products" : {"bank" : {"name" : "","account_no" : "","branch_name" : "","neft_code" : ""},"summary" : {"rates" : [{"id" : "netamount","name" : "Net Amount","value" : "100"},{"id" : "totalitemtax","name" : "Item Tax Amount","value" : "10"},{"id" : "categorytaxamount","name" : "Category Tax Amount","value" : "10"},{"id" : "invoicetaxamount","name" : "Invoice Tax Amount","value" : "10"},{"id" : "grossamount","name" : "Gross Amount","value" : "130"}],"text" : "One Hundred and Five"}},"summary" : {"text" : "Lorem Ipsum","signatures" : [{"id" : "prepared_by","text" : "Prepared by,","name" : "Name"},{"id" : "received_by","text" : "Received by,","name" : "Name"},{"id" : "authorized_by","text" : "Authorized by,","name" : "Name"}]},"columns" : [{"show": true,"name": "#","column": "serial_number","pos": 1,},{"show" : true,"name" : "Product Name","column" : "itemname","width" : "15%","pos" : NumberLong(2)},{"show" : true,"name" : "Taxes (%)","column" : "taxes","pos" : NumberLong(10)},{"show" : true,"name" : "Gross Rate","column" : "grossrate","pos" : NumberLong(11)},{"show" : true,"name" : "Gross Amount","column" : "grossamount","pos" : NumberLong(15)}]},"styles" : {"type" : {"style" : {"fontSize" : "14px","textAlign" : "center","color" : "#555555"}},"data" : {"style" : {"margin" : "10px","border" : "solid 1px #555555"},"company" : {"style" : {"textAlign" : "left","float" : "none"},"details" : {"show" : true,"style" : {"fontSize" : "8px","fontWeight" : "bold","color" : "#555555"}},"address" : {"show" : true,"style" : {"fontSize" : "8px","padding" : "0","color" : "#999999"}}},"client" : {"show" : true,"style" : {"textAlign" : "left"},"details" : {"show" : true,"style" : {"fontSize" : "8px","fontWeight" : "bold"}},"address" : {"show" : true,"style" : {"fontSize" : "8px","padding" : "0"}},"tin" : {"show" : true}},"products" : {"bank" : {"show" : false,"style" : {"fontSize" : "14px"}},"summary" : {"text" : {"show" : true,"style" : {"fontSize" : "8px","fontWeight" : "bold","textAlign" : "center"}}}},"summary" : {"text" : {"show" : true,"style" : {"fontSize" : "12px","textAlign" : "left"}},"signatures" : {"show" : true,"style" : [ ]}}}}},"name" : "A4","image" : "https://placeholdit.imgix.net/~text?txtsize=0&bg=ffffff&txtclr=ffffff&txt=595%C3%97842&w=2480&h=3508","size" : "8.27\" x 11.69\"","ratio" : 1.414}}

{"data" : {"type" : "thermal","invoice" : {"type" : {"name" : "Invoice Type"},"data" : {"invoice_no" : "INV00001","invoice_date" : "DD-MM-YYYY","company" : {"details" : {"name" : "Company Name"},"address" : {"street" : "Address goes here","city" : "City","state" : "State","country" : "Country","pincode" : "123456","show" : true}},"client" : {"details" : {"show" : true,"name" : "Account Name","TIN" : "123456789","GST" : "987654321"},"address" : {"street" : "Address","city" : "City","state" : "State","country" : "Country","pincode" : "123456"}},"products" : {"bank" : {"name" : "","account_no" : "","branch_name" : "","neft_code" : ""},"summary" : {"rates" : [{"id" : "netamount","name" : "Net Amount","value" : "100"},{"id" : "totalitemtax","name" : "Item Tax Amount","value" : "10"},{"id" : "categorytaxamount","name" : "Category Tax Amount","value" : "10"},{"id" : "invoicetaxamount","name" : "Invoice Tax Amount","value" : "10"},{"id" : "grossamount","name" : "Gross Amount","value" : "130"}],"text" : "One Hundred and Five"}},"summary" : {"text" : "Lorem Ipsum","signatures" : [{"id" : "prepared_by","text" : "Prepared by,","name" : "Name"},{"id" : "received_by","text" : "Received by,","name" : "Name"},{"id" : "authorized_by","text" : "Authorized by,","name" : "Name"}]},"columns" : [{"show": true,"name": "#","column": "serial_number","pos": 1,},{"show" : true,"name" : "Product Name","column" : "itemname","width" : "15%","pos" : NumberLong(2)},{"show" : true,"name" : "Gross Amount","column" : "grossamount","pos" : NumberLong(15)}]},"styles" : {"type" : {"style" : {"fontSize" : "14px","textAlign" : "center","color" : "#555555"}},"data" : {"style" : {"margin" : "10px","border" : "solid 1px #555555"},"company" : {"style" : {"textAlign" : "left","float" : "none"},"details" : {"show" : true,"style" : {"fontSize" : "6px","fontWeight" : "bold","color" : "#555555"}},"address" : {"show" : true,"style" : {"fontSize" : "6px","padding" : "0","color" : "#999999"}}},"client" : {"show" : true,"style" : {"textAlign" : "left"},"details" : {"show" : true,"style" : {"fontSize" : "6px","fontWeight" : "bold"}},"address" : {"show" : true,"style" : {"fontSize" : "6px","padding" : "0"}},"tin" : {"show" : true}},"products" : {"bank" : {"show" : false,"style" : {"fontSize" : "14px"}},"summary" : {"text" : {"show" : true,"style" : {"fontSize" : "6px","fontWeight" : "bold","textAlign" : "right"}}}},"summary" : {"text" : {"show" : true,"style" : {"fontSize" : "14px","textAlign" : "left","fontWeight" : "normal"}},"signatures" : {"show" : true,"style" : [ ]}}}}},"name" : "A4","image" : "https://placeholdit.imgix.net/~text?txtsize=0&bg=ffffff&txtclr=ffffff&txt=595%C3%97842&w=2480&h=3508","size" : "8.27\" x 11.69\"","ratio" : 1.414}}