{
	"import_type" : "inventory",
	"data" : [
		{
			"name" : "Barcode Number",
			"id" : "barcode_number",
			"default": "",
			"should_be_one": [],
			"dbname" : "barcodenumber",
			"condition": ["string", "should_not_exist_in_database"],
			"required" : false
		},
		{
			"name" : "Item Name",
			"id" : "item_name",
			"default": "",
			"should_be_one": [],
			"dbname" : "itemname",
			"condition": ["string"],
			"required" : true
		},
		{
			"name" : "Manufacture Name",
			"id" : "manufacture_name",
			"default": "",
			"should_be_one": [],
			"dbname" : "manufacturername",
			"condition": ["string"],
			"required" : false
		},
		{
			"name" : "Item Description",
			"id" : "item_description",
			"default": "",
			"should_be_one": [],
			"dbname" : "itemdescription",
			"condition": ["string"],
			"required" : false
		},
		{
			"name" : "Opening Stock",
			"id" : "opening_stock",
			"default": 0,
			"should_be_one": [],
			"dbname" : "quantity",
			"condition": ["integer"],
			"required" : false
		},
		{
			"name" : "Minimum Quantity",
			"id" : "minimum_quantity",
			"default": 0,
			"should_be_one": [],
			"dbname" : "minimumquantity",
			"condition": ["integer"],
			"required" : false
		},
		{
			"name" : "Group Name",
			"id" : "group_name",
			"default": "",
			"should_be_one": [],
			"dbname" : "group.name",
			"condition": ["string"],
			"required" : false
		},
		{
			"name" : "MRP",
			"id" : "mrp",
			"default": 0,
			"should_be_one": [],
			"dbname" : "itemmrp",
			"condition": ["float"],
			"required" : true
		},
		{
			"name" : "Purchase Rate",
			"id" : "purchase_rate",
			"default": 0,
			"should_be_one": [],
			"dbname" : "purchaserate",
			"condition": ["float"],
			"required" : true
		},
		{
			"name" : "Base Sales Rate",
			"id" : "base_sales_rate",
			"default": 0,
			"should_be_one": [],
			"dbname" : "salesrate",
			"condition": ["float"],
			"required" : true
		},
		{
			"name" : "Discount Name",
			"id" : "discount_name",
			"default": "",
			"should_be_one": [],
			"dbname" : "discountname",
			"condition": ["string"],
			"required" : false
		},
		{
			"name" : "Discount",
			"id" : "discount",
			"default": 0,
			"should_be_one": [],
			"dbname" : "discountrate",
			"condition": ["float", "percentage_value"],
			"required" : false
		},
		{
			"name" : "Band1",
			"id" : "band1",
			"default": 0,
			"should_be_one": [],
			"dbname" : "1",
			"condition": ["float", "percentage_value"],
			"required" : false
		},
		{
			"name" : "Band2",
			"id" : "band2",
			"default": 0,
			"should_be_one": [],
			"dbname" : "2",
			"condition": ["float", "percentage_value"],
			"required" : false
		},
		{
			"name" : "Band3",
			"id" : "band3",
			"default": 0,
			"should_be_one": [],
			"dbname" : "3",
			"condition": ["float", "percentage_value"],
			"required" : false
		},
		{
			"name" : "Band4",
			"id" : "band4",
			"default": 0,
			"should_be_one": [],
			"dbname" : "4",
			"condition": ["float", "percentage_value"],
			"required" : false
		},
		{
			"name" : "Band5",
			"id" : "band5",
			"default": 0,
			"should_be_one": [],
			"dbname" : "5",
			"condition": ["float", "percentage_value"],
			"required" : false
		},
		{
			"name" : "Unit",
			"id" : "unit",
			"default": "",
			"should_be_one": ["each", "pack", "case"],
			"dbname" : "unit",
			"condition": ["string"],
			"required" : true
		},
		{
			"name" : "Number of pieces",
			"id" : "number_of_pieces",
			"default": 1,
			"should_be_one": [],
			"dbname" : "unitofpieces",
			"condition": ["integer"],
			"required" : true
		},
		{
			"name" : "Unit Per Package",
			"id" : "unit_per_package",
			"default": 1,
			"should_be_one": [],
			"dbname" : "units_per_package",
			"condition": ["integer"],
			"required" : false
		},
		{
			"name" : "Item Image Name",
			"id" : "item_image_name",
			"default": "",
			"should_be_one": [],
			"dbname" : "itemimage",
			"condition": ["string"],
			"required" : false
		}
	]
}
